{
  "title": "DotNETCore.Repository.MongoDB",
  "version": "1.0.0-*",

  "dependencies": {
    "Microsoft.Extensions.Configuration.Abstractions": "1.1.0-preview1-final",
    "MongoDB.Driver": "2.4.0-beta1",
    "NETStandard.Library": "1.6.1-preview1-24530-04",
    "Polly": "5.0.1-v5-0-alpha0001"
  },

  "frameworks": {
    "netstandard1.6": {
      "imports": "dnxcore50"
    }
  }
}
